{
    "NOTE ON": "noteon",
    "NOTE OFF": "noteoff",
    "CONTROLLER": "cc",
    "AFTERTOUCH": "aftertouch",
    "PROGRAM CHANGE": "program",
    "PITCH WHEEL": "pitch",
    "CHANNEL PRESSURE": "pressure",
    "BPM CHANGED": "bpm",
    "START": "start",
    "CONTINUE": "continue",
    "STOP": "stop",
    "BEAT": "beat"
}